{
  "data": {
    "banners": [
      {
        "image": "http://api.viaggiart.com/resources/web/1/banner/it/news/96071.jpg?v=1",
        "width": 800,
        "height": 400,
        "id": 96071,
        "type": "news"
      },
      {
        "image": "http://api.viaggiart.com/resources/web/1/banner/it/news/96072.jpg?v=1",
        "width": 800,
        "height": 400,
        "id": 96072,
        "type": "news"
      },
      {
        "image": "http://api.viaggiart.com/resources/web/1/banner/it/news/96070.jpg?v=1",
        "width": 800,
        "height": 400,
        "id": 96070,
        "type": "news"
      }
    ],
    "sections": [
      {
        "icon": "http://api.viaggiart.com/resources/web/1/category/badge/it/tips.png",
        "label": "Altro >",
        "link": "http://api.viaggiart.com/provapiatti",
        "list": [
          {
            "id": 1,
            "title": "Spaghetti di Rocca imperiale",
            "type": "other1",
            "share_link": "http://preview.viaggiart.com/it//settimana-santa-italia-viaggio-pulp-riti-pasqua-290.html",
            "original_link": "http://www.viaggiart.com/blog/settimana-santa-italia-viaggio-pulp-riti-pasqua",
            "published": "",
            "elapsed_time": "",
            "distance": "",
            "unit": "",
            "latitude": 40.7578412,
            "longitude": 14.0150996,
            "full_address": "Procida, NA, Italia",
            "category": "Destinazioni",
            "category_image": "http://api.viaggiart.com/resources/web/2/category/badge/it/tips.png",
            "category_pin": "http://api.viaggiart.com/resources/web/2/category/pin/it/tips.png",
            "cover": {
              "url": "http://api.viaggiart.com/resources/images/3.0/icon2/tips/4952-b7f7ada7d848002260ee5eb7d8835709-1492075560.jpg?v=2.1",
              "label": "",
              "licence": "",
              "width": 600,
              "height": 400
            },
            "text": {
              "excerpt": "Altro che “Semana Santa”! La nostra Settimana Santa in Italia non ha nulla da invidiare, in termini di fede e folklore, alla tradizione spagnola e il viaggio “pulp” tra i riti di Pasqua che vi proponiamo oggi lo...",
              "licence": "Eliana Iorfida"
            },
            "website": null,
            "call_to_action": []
          },
          {
            "id": 1,
            "title": "Centrale di baccalà",
            "type": "other1",
            "share_link": "http://preview.viaggiart.com/it//napoli-storia-pastiera-289.html",
            "original_link": "http://www.viaggiart.com/blog/napoli-storia-pastiera",
            "published": "",
            "elapsed_time": "",
            "distance": "",
            "unit": "",
            "latitude": 40.8517746,
            "longitude": 14.2681244,
            "full_address": "Napoli, NA, Italia",
            "category": "ViaggiArt di Gusto",
            "category_image": "http://api.viaggiart.com/resources/web/2/category/badge/it/tips.png",
            "category_pin": "http://api.viaggiart.com/resources/web/2/category/pin/it/tips.png",
            "cover": {
              "url": "http://api.viaggiart.com/resources/images/3.0/icon2/tips/4939-b7f7ada7d848002260ee5eb7d8835709-1491904909.jpg?v=2.1",
              "label": "",
              "licence": "",
              "width": 600,
              "height": 400
            },
            "text": {
              "excerpt": "Regina dei dolci tipici di Pasqua, la pastiera napoletana ha un’origine leggendaria!\nViaggiArt ha deciso di svelarvi i segreti di Napoli e la vera storia della pastiera…\n \nOrigini, ricetta e varianti di un “must”\nOggi siamo a...",
              "licence": "Redazione"
            },
            "website": null,
            "call_to_action": []
          },
          {
            "id": 1,
            "title": "Rigatoni di Scoglio",
            "type": "other1",
            "share_link": "http://preview.viaggiart.com/it//persephoni-bova-sacro-profano-288.html",
            "original_link": "http://www.viaggiart.com/blog/persephoni-bova-sacro-profano",
            "published": "",
            "elapsed_time": "",
            "distance": "",
            "unit": "",
            "latitude": 37.9304476,
            "longitude": 15.9245973,
            "full_address": "Bova Marina, RC, Italia",
            "category": "Eventi",
            "category_image": "http://api.viaggiart.com/resources/web/2/category/badge/it/tips.png",
            "category_pin": "http://api.viaggiart.com/resources/web/2/category/pin/it/tips.png",
            "cover": {
              "url": "http://api.viaggiart.com/resources/images/3.0/icon2/tips/4933-b7f7ada7d848002260ee5eb7d8835709-1491562006.jpg?v=2.1",
              "label": "",
              "licence": "",
              "width": 600,
              "height": 400
            },
            "text": {
              "excerpt": "A Bova, borgo grecanico della provincia di Reggio Calabria, durante la Domenica delle Palme si celebra qualcosa di insolito, un rito che poco ha a che fare con la tradizione cristiana: si vedono sfilare le Persesephoni di Bova, tra sacro...",
              "licence": "Eliana Iorfida"
            },
            "website": null,
            "call_to_action": []
          },
          {
            "id": 287,
            "title": "Curon Venosta, storia di un paese sommerso",
            "type": "news",
            "share_link": "http://preview.viaggiart.com/it//curon-venosta-paese-sommerso-287.html",
            "original_link": "http://www.viaggiart.com/blog/curon-venosta-paese-sommerso",
            "published": "2017-04-06 09:49:43",
            "elapsed_time": "",
            "distance": "",
            "unit": "",
            "latitude": 46.8081108,
            "longitude": 10.5407426,
            "full_address": "Curon Venosta, BZ, Italia",
            "category": "Destinazioni",
            "category_image": "http://api.viaggiart.com/resources/web/2/category/badge/it/tips.png",
            "category_pin": "http://api.viaggiart.com/resources/web/2/category/pin/it/tips.png",
            "cover": {
              "url": "http://api.viaggiart.com/resources/images/3.0/icon2/tips/4928-b7f7ada7d848002260ee5eb7d8835709-1491472183.jpg?v=2.1",
              "label": "",
              "licence": "",
              "width": 600,
              "height": 400
            },
            "text": {
              "excerpt": "Il campanile che riemerge dal Lago di Resia nello stemma comunale di Curon Venosta, borgo della Val Venosta noto anche come il “Paese Sommerso”, è quello del XIV secolo che oggi sbuca dalle acque come simbolo di un’intera...",
              "licence": "Eliana Iorfida"
            },
            "website": null,
            "call_to_action": []
          },
          {
            "id": 286,
            "title": "“Parade”, viaggio in Italia con Picasso",
            "type": "news",
            "share_link": "http://preview.viaggiart.com/it//parade-viaggio-italia-picasso-286.html",
            "original_link": "http://www.viaggiart.com/blog/parade-viaggio-italia-picasso",
            "published": "2017-04-05 10:29:00",
            "elapsed_time": "",
            "distance": "",
            "unit": "",
            "latitude": 40.8517746,
            "longitude": 14.2681244,
            "full_address": "Napoli, NA, Italia",
            "category": "Itinerari",
            "category_image": "http://api.viaggiart.com/resources/web/2/category/badge/it/tips.png",
            "category_pin": "http://api.viaggiart.com/resources/web/2/category/pin/it/tips.png",
            "cover": {
              "url": "http://api.viaggiart.com/resources/images/3.0/icon2/tips/4922-b7f7ada7d848002260ee5eb7d8835709-1491388140.jpg?v=2.1",
              "label": "",
              "licence": "",
              "width": 600,
              "height": 400
            },
            "text": {
              "excerpt": "Nel 1917 Pablo Picasso, su invito dall’amico poeta, drammaturgo e artista a tutto tondo Jean Cocteau, intraprende un viaggio in Italia che toccherà Roma e Napoli e segnerà la sua produzione futura. “Parade” è il frutto di...",
              "licence": "Eliana Iorfida"
            },
            "website": null,
            "call_to_action": []
          },
          {
            "id": 285,
            "title": "TEDeat Roma, assaggi inediti nella capitale",
            "type": "news",
            "share_link": "http://preview.viaggiart.com/it//tedeat-roma-assaggi-inediti-nella-capitale-285.html",
            "original_link": "http://www.viaggiart.com/blog/tedeat-roma-assaggi-inediti-nella-capitale",
            "published": "2017-03-31 11:23:53",
            "elapsed_time": "",
            "distance": "",
            "unit": "",
            "latitude": 41.9121547,
            "longitude": 12.475691,
            "full_address": "Flaminio, Roma, RM, Italia",
            "category": "ViaggiArt di Gusto",
            "category_image": "http://api.viaggiart.com/resources/web/2/category/badge/it/tips.png",
            "category_pin": "http://api.viaggiart.com/resources/web/2/category/pin/it/tips.png",
            "cover": {
              "url": "http://api.viaggiart.com/resources/images/3.0/icon2/tips/4916-b7f7ada7d848002260ee5eb7d8835709-1491905644.jpg?v=2.1",
              "label": "",
              "licence": "",
              "width": 800,
              "height": 400
            },
            "text": {
              "excerpt": "L’idea è quella di vivere Roma come la vivono i romani, raccontandola ai turisti attraverso la cucina e le atmosfere autentiche. A realizzarla ci hanno pensano tre donne intraprendenti col progetto TEDeat Roma, ovvero assaggi inediti...",
              "licence": "Redazione"
            },
            "website": null,
            "call_to_action": []
          },
          {
            "id": 284,
            "title": "Nella gola delle Valli Cupe, il secondo canyon d’Europa",
            "type": "news",
            "share_link": "http://preview.viaggiart.com/it//valli-cupe-secondo-canyon-europa-284.html",
            "original_link": "http://www.viaggiart.com/blog/valli-cupe-secondo-canyon-europa",
            "published": "2017-03-29 10:08:48",
            "elapsed_time": "",
            "distance": "",
            "unit": "",
            "latitude": 38.9699845,
            "longitude": 16.7335269,
            "full_address": "Valli Cupe - Area Naturalistica, Sersale, CZ, Italia",
            "category": "Destinazioni",
            "category_image": "http://api.viaggiart.com/resources/web/2/category/badge/it/tips.png",
            "category_pin": "http://api.viaggiart.com/resources/web/2/category/pin/it/tips.png",
            "cover": {
              "url": "http://api.viaggiart.com/resources/images/3.0/icon2/tips/4909-b7f7ada7d848002260ee5eb7d8835709-1490782773.jpg?v=2.1",
              "label": "",
              "licence": "",
              "width": 600,
              "height": 400
            },
            "text": {
              "excerpt": "Camminiamo in fila indiana, stretti tra pareti sedimentarie che ci sovrastano; un rivolo d’acqua cristallina ci scorre accanto. Non siamo in Arizona, al centro del Grand Canyon, ma in Calabria, nella gola delle Valli Cupe, il secondo...",
              "licence": "Eliana Iorfida"
            },
            "website": null,
            "call_to_action": []
          }
        ],
        "titolo": "Piatti",
        "type": "others1"
      },
      {
        "titolo": "Ristoranti",
        "icon": "http://api.viaggiart.com/resources/web/1/category/badge/it/eat.png",
        "type": "eat",
        "label": "Intorno a te >",
        "link": "http://api.viaggiart.com/eat",
        "list": [
          {
            "id": 1,
            "title": "La Locanda di Alia",
            "type": "eat",
            "slug": "il-baretto",
            "rate": 7550,
            "share_link": "http://api.viaggiart.com/resources/images/2.625/big/eat/134729-7700ed7bfff14d8cb4c58b21544b0c6c-1480805245.jpg?v=2.1",
            "distance": "6.48",
            "unit": "km",
            "latitude": "39.300586",
            "longitude": "16.250882",
            "city": "Cosenza",
            "full_address": "Via Frugiuele Domenico, 40, Cosenza",
            "category": "",
            "category_image": "http://api.viaggiart.com/resources/web/2/category/badge/it/eat.png?v=3",
            "category_pin": "http://api.viaggiart.com/resources/web/2/category/pin/it/eat.png?v=3",
            "cover": {
              "url": "http://api.viaggiart.com/resources/images/2.625/icon/eat/134729-7700ed7bfff14d8cb4c58b21544b0c6c-1480805245.jpg?v=2.1",
              "label": "",
              "licence": "",
              "width": 600,
              "height": 400
            },
            "text": {
              "excerpt": "Il baretto è il posto dove puoi fare ciò che vuoi! Non è solo un bar, ma è molto di più: ogni volta che avrai voglia di qualcosa di buono, in qualsiasi momento della giornata, lo troverai nel nostro piccolo e delizioso locale in...",
              "licence": ""
            },
            "budget": -1,
            "stars": "0",
            "priceRange": "0.00",
            "call_to_action": {
              "type": "call",
              "label": "Prenota ora",
              "value": "+39.3505046791"
            }
          },
          {
            "id": 1,
            "title": "La taverna degli ammirati",
            "type": "eat",
            "slug": "l-osteria-degli-amici",
            "rate": 1806,
            "share_link": "http://api.viaggiart.com/resources/images/2.625/big/eat/134700-858dc0a31f7379f4873679bdfd00abb8-1480805250.jpg?v=2.1",
            "distance": "7.19",
            "unit": "km",
            "latitude": "39.2949677",
            "longitude": "16.2548544",
            "city": "Cosenza",
            "full_address": "Via Trento, 49, Cosenza",
            "category": "",
            "category_image": "http://api.viaggiart.com/resources/web/2/category/badge/it/eat.png?v=3",
            "category_pin": "http://api.viaggiart.com/resources/web/2/category/pin/it/eat.png?v=3",
            "cover": {
              "url": "http://api.viaggiart.com/resources/images/2.625/icon/eat/134700-858dc0a31f7379f4873679bdfd00abb8-1480805250.jpg?v=2.1",
              "label": "",
              "licence": "",
              "width": 600,
              "height": 400
            },
            "text": {
              "excerpt": "Ristorante situato nel centro città, è sinonimo di garanzia di un servizio cordiale, gentile e veloce. Si può variare dagli antipasti tipici calabresi a degli ottimi piatti caldi, con una buona selezione di vini. Le specialità della...",
              "licence": ""
            },
            "budget": -1,
            "stars": "0",
            "priceRange": "0.00",
            "call_to_action": {
              "type": "call",
              "label": "Prenota ora",
              "value": "+39.0984.76218"
            }
          },
          {
            "id": 1,
            "title": "La falconara",
            "type": "eat",
            "slug": "salvino-ristoratori-dal-1967",
            "rate": 1814,
            "share_link": "http://api.viaggiart.com/resources/images/2.625/big/eat/134702-185cfe9e765ee692c57f7fcdd3f860c1-1480805251.jpg?v=2.1",
            "distance": "7.95",
            "unit": "km",
            "latitude": "39.2899038481",
            "longitude": "16.260817050934",
            "city": "Cosenza",
            "full_address": "Via Giuseppe Marini Serra, 12, Cosenza",
            "category": "",
            "category_image": "http://api.viaggiart.com/resources/web/2/category/badge/it/eat.png?v=3",
            "category_pin": "http://api.viaggiart.com/resources/web/2/category/pin/it/eat.png?v=3",
            "cover": {
              "url": "http://api.viaggiart.com/resources/images/2.625/icon/eat/134702-185cfe9e765ee692c57f7fcdd3f860c1-1480805251.jpg?v=2.1",
              "label": "",
              "licence": "",
              "width": 600,
              "height": 400
            },
            "text": {
              "excerpt": "Il ristorante si trova nel centro storico della città di Cosenza, a 600 m dal Corso Telesio.\r\nLa tradizione della cucina tipica calabrese esprime i suoi antichi sapori e profumi fra queste antiche mura. Tanto passato ma anche uno sguardo a...",
              "licence": ""
            },
            "budget": -1,
            "stars": "0",
            "priceRange": "0.00",
            "call_to_action": {
              "type": "call",
              "label": "Prenota ora",
              "value": "+39.0984.21257 "
            }
          },
          {
            "id": 123934,
            "title": "Gran Caffè Renzelli",
            "type": "eat",
            "slug": "gran-caffe-renzelli",
            "rate": 1328,
            "share_link": "http://api.viaggiart.com/resources/images/2.625/big/eat/134485-277087f01c6e831a55e0fde3531ba3f4-1480805250.jpg?v=2.1",
            "distance": "",
            "unit": "",
            "latitude": "39.288426",
            "longitude": "16.26069",
            "city": "Cosenza",
            "full_address": "Corso Bernardino Telesio, 26, Cosenza, 46, Cosenza",
            "category": "",
            "category_image": "http://api.viaggiart.com/resources/web/2/category/badge/it/eat.png?v=3",
            "category_pin": "http://api.viaggiart.com/resources/web/2/category/pin/it/eat.png?v=3",
            "cover": {
              "url": "http://api.viaggiart.com/resources/images/2.625/icon/eat/134485-277087f01c6e831a55e0fde3531ba3f4-1480805250.jpg?v=2.1",
              "label": "",
              "licence": "",
              "width": 600,
              "height": 400
            },
            "text": {
              "excerpt": "Nato nel 1805, è uno dei locali storici italiani, prestigioso interprete di quella tradizione che ci rende unici nel mondo. ViaggiArt lo consiglia ai turisti in visita per la prima volta in città, e a chi vuole scoprire le storie che si...",
              "licence": ""
            },
            "budget": -1,
            "stars": "0",
            "priceRange": "0.00",
            "call_to_action": {
              "type": "call",
              "label": "Prenota ora",
              "value": "0984 26814"
            }
          },
          {
            "id": 124150,
            "title": "Caffè Telesio",
            "type": "eat",
            "slug": "caffe-telesio",
            "rate": 1792,
            "share_link": "http://api.viaggiart.com/resources/images/2.625/big/eat/134699-8bf08c057db57ed4c344a60bf904d9c6-1480854384.jpg?v=2.1",
            "distance": "",
            "unit": "",
            "latitude": "39.287620320306",
            "longitude": "16.261240839958",
            "city": "Cosenza",
            "full_address": "Corso Bernardino Telesio, 14, Cosenza",
            "category": "",
            "category_image": "http://api.viaggiart.com/resources/web/2/category/badge/it/eat.png?v=3",
            "category_pin": "http://api.viaggiart.com/resources/web/2/category/pin/it/eat.png?v=3",
            "cover": {
              "url": "http://api.viaggiart.com/resources/images/2.625/icon/eat/134699-8bf08c057db57ed4c344a60bf904d9c6-1480854384.jpg?v=2.1",
              "label": "",
              "licence": "",
              "width": 600,
              "height": 400
            },
            "text": {
              "excerpt": "Il Caffè Telesio, nato dall’idea di due giovani e dinamici si trova a pochi metri dal Museo del Fumetto.\r\nL’ambiente caldo, cordiale e innovativo, rende il Caffè Telesio il luogo ideale dove poter fare una pausa e trovando prodotti...",
              "licence": ""
            },
            "budget": -1,
            "stars": "0",
            "priceRange": "0.00",
            "call_to_action": {
              "type": "call",
              "label": "Prenota ora",
              "value": "+39.3388691237"
            }
          }
        ]
      },
      {
        "titolo": "Cosa Vedere",
        "icon": "http://api.viaggiart.com/resources/web/1/category/badge/it/see.png",
        "label": "Intorno a te >",
        "link": "http://api.viaggiart.com/places",
        "type": "places",
        "list": [
          {
            "id": 14798,
            "title": "Museo di Paleontologia",
            "type": "place",
            "slug": "museo-di-paleontologia",
            "rate": 21.176470588235,
            "share_link": "http://api.viaggiart.com/resources/images/2.625/big/place/22071-a74e88cfc53686ce828fb037d0f2041e-1480029675.jpg?v=2.1",
            "distance": "",
            "unit": "",
            "latitude": "39.3560169",
            "longitude": "16.2282553",
            "city": "Rende",
            "full_address": "Ponte P. Bucci, cubo 14B, 43, Rende, (Cosenza)",
            "category": "Museo",
            "category_image": "http://api.viaggiart.com/resources/web/2/category/badge/it/see.png?v=3",
            "category_pin": "http://api.viaggiart.com/resources/web/2/category/pin/it/see.png?v=3",
            "cover": {
              "url": "http://api.viaggiart.com/resources/images/2.625/icon/place/22071-a74e88cfc53686ce828fb037d0f2041e-1480029675.jpg?v=2.1",
              "label": "",
              "licence": "",
              "width": 400,
              "height": 400
            },
            "text": {
              "excerpt": "Il Museo Paleontologia dell'Università della Calabria si trova al sesto piano del \"Cubo 14B\". Si articola in un percorso che inizia agli albori della vita (circa 3 miliardi di anni fa) e, attraverso i principali eventi che hanno...",
              "licence": ""
            },
            "call_to_action": {
              "type": "call",
              "label": "Contatta",
              "value": "+39 0984 493685"
            }
          },
          {
            "id": 16161,
            "title": "Chiesa di Costantinopoli",
            "type": "place",
            "slug": "chiesa-di-costantinopoli",
            "rate": 26.470588235294,
            "share_link": "http://api.viaggiart.com/resources/images/2.625/big/place/24383-4a3ef7e06bb4020500bbd7e86dc71429-1480197385.jpg?v=2.1",
            "distance": "2.37",
            "unit": "km",
            "latitude": "39.3334025",
            "longitude": "16.1837794",
            "city": "Rende",
            "full_address": "Via XX Settembre, 8, Rende, (Cosenza)",
            "category": "Edificio di culto",
            "category_image": "http://api.viaggiart.com/resources/web/2/category/badge/it/see.png?v=3",
            "category_pin": "http://api.viaggiart.com/resources/web/2/category/pin/it/see.png?v=3",
            "cover": {
              "url": "http://api.viaggiart.com/resources/images/2.625/icon/place/24383-4a3ef7e06bb4020500bbd7e86dc71429-1480197385.jpg?v=2.1",
              "label": "",
              "licence": "Wikipedia",
              "width": 400,
              "height": 400
            },
            "text": {
              "excerpt": "La Chiesa di Costantinopoli è stata edificata intorno al 1600, anche se l'aspetto attuale risale al 1719. La facciata è \"a capanna\", con un finestrone policromo raffigurante la Vergine di Costantinopoli col Bambino. Sul lato destro...",
              "licence": ""
            },
            "call_to_action": []
          },
          {
            "id": 17765,
            "title": "Cinema Santa Chiara",
            "type": "place",
            "slug": "cinema-santa-chiara",
            "rate": 26.470588235294,
            "share_link": "http://api.viaggiart.com/resources/images/2.625/big/place/27902-fbf697a2b5eed2f138a85082a119b815-1480197408.jpg?v=2.1",
            "distance": "2.43",
            "unit": "km",
            "latitude": "39.332820310487",
            "longitude": "16.183505058289",
            "city": "Rende",
            "full_address": "Via R. de Bartolo, 27, Rende, (Cosenza)",
            "category": "Teatro",
            "category_image": "http://api.viaggiart.com/resources/web/2/category/badge/it/see.png?v=3",
            "category_pin": "http://api.viaggiart.com/resources/web/2/category/pin/it/see.png?v=3",
            "cover": {
              "url": "http://api.viaggiart.com/resources/images/2.625/icon/place/27902-fbf697a2b5eed2f138a85082a119b815-1480197408.jpg?v=2.1",
              "label": "",
              "licence": "ViaggiArt",
              "width": 400,
              "height": 400
            },
            "text": {
              "excerpt": "Si tratta del primo cinema della provincia di Cosenza, il più antico della Calabria ancora in funzione e il più longevo in attività, dal 1925 al 1979 senza interruzioni. Dal 2015, in occasione del novantesimo anno dall'inaugurazione...",
              "licence": ""
            },
            "call_to_action": []
          },
          {
            "id": 14795,
            "title": "MAON - Museo dell'Arte dell'Otto e Novecento ",
            "type": "place",
            "slug": "maon-museo-dell-arte-dell-otto-e-novecento",
            "rate": 26.470588235294,
            "share_link": "http://api.viaggiart.com/resources/images/2.625/big/place/22061-946d0a5d15b2453834ed5400b57c89c9-1480125420.jpg?v=2.1",
            "distance": "2.47",
            "unit": "km",
            "latitude": "39.332232",
            "longitude": "16.183628",
            "city": "Rende",
            "full_address": "Via Raffaele de Bartolo, 1, Rende, (Cosenza)",
            "category": "Museo",
            "category_image": "http://api.viaggiart.com/resources/web/2/category/badge/it/see.png?v=3",
            "category_pin": "http://api.viaggiart.com/resources/web/2/category/pin/it/see.png?v=3",
            "cover": {
              "url": "http://api.viaggiart.com/resources/images/2.625/icon/place/22061-946d0a5d15b2453834ed5400b57c89c9-1480125420.jpg?v=2.1",
              "label": "MAON",
              "licence": "ViaggiArt",
              "width": 400,
              "height": 400
            },
            "text": {
              "excerpt": "Il MAON, Museo dell'Arte dell'Otto e Novecento, è stato inaugurato nel 2004 su iniziativa del Centro per l'arte e la cultura \"Antonio Capizzano\". Ha sede all'interno di Palazzo Vitari, edificio del XVIII secolo ex convento delle...",
              "licence": ""
            },
            "call_to_action": {
              "type": "call",
              "label": "Contatta",
              "value": "+39 0984 444113"
            }
          },
          {
            "id": 14796,
            "title": "Museo Civico",
            "type": "place",
            "slug": "museo-civico",
            "rate": 26.470588235294,
            "share_link": "http://api.viaggiart.com/resources/images/2.625/big/place/22068-fb7850115a917d3ab720269da3e667de-1480197411.jpg?v=2.1",
            "distance": "2.49",
            "unit": "km",
            "latitude": "39.332177172942",
            "longitude": "16.183387041092",
            "city": "Rende",
            "full_address": "Via Don G. Vercillo, Rende, (Cosenza)",
            "category": "Museo",
            "category_image": "http://api.viaggiart.com/resources/web/2/category/badge/it/see.png?v=3",
            "category_pin": "http://api.viaggiart.com/resources/web/2/category/pin/it/see.png?v=3",
            "cover": {
              "url": "http://api.viaggiart.com/resources/images/2.625/icon/place/22068-fb7850115a917d3ab720269da3e667de-1480197411.jpg?v=2.1",
              "label": "",
              "licence": "ViaggiArt",
              "width": 400,
              "height": 400
            },
            "text": {
              "excerpt": "Il Museo Civico di Rende ha sede presso Palazzo Zagarese, antica dimora della famiglia legata alla tradizionale attività estrattiva della liquirizia. Il palazzo conserva ancora la sua struttura originale, con gli ambienti...",
              "licence": ""
            },
            "call_to_action": {
              "type": "call",
              "label": "Contatta",
              "value": "+39.0984443593"
            }
          },
          {
            "id": 16160,
            "title": "Chiesa di Santa Maria Maggiore (Duomo)",
            "type": "place",
            "slug": "chiesa-di-santa-maria-maggiore-duomo",
            "rate": 26.470588235294,
            "share_link": "http://api.viaggiart.com/resources/images/2.625/big/place/24379-69e70e2b36b5970344e5c920495558b8-1480197413.jpg?v=2.1",
            "distance": "2.54",
            "unit": "km",
            "latitude": "39.3319199",
            "longitude": "16.182932",
            "city": "Rende",
            "full_address": "Piazza Dante Alighieri, 6, Rende, (Cosenza)",
            "category": "Edificio di culto",
            "category_image": "http://api.viaggiart.com/resources/web/2/category/badge/it/see.png?v=3",
            "category_pin": "http://api.viaggiart.com/resources/web/2/category/pin/it/see.png?v=3",
            "cover": {
              "url": "http://api.viaggiart.com/resources/images/2.625/icon/place/24379-69e70e2b36b5970344e5c920495558b8-1480197413.jpg?v=2.1",
              "label": "",
              "licence": "ViaggiArt",
              "width": 400,
              "height": 400
            },
            "text": {
              "excerpt": "La Chiesa di Santa Maria Maggiore (o Chiesa Matrice) si trova alla fine del Corso che la collega al Castello. Edificata nel XII secolo, la chiesa presenta una pianta a croce latina con tre navate e un rosone posto sul portale...",
              "licence": ""
            },
            "call_to_action": []
          },
          {
            "id": 16159,
            "title": "Centro Storico",
            "type": "place",
            "slug": "centro-storico",
            "rate": 26.470588235294,
            "share_link": "http://api.viaggiart.com/resources/images/2.625/big/place/24371-d62e62abe24dcaa94f9e1b3678477b51-1480412797.jpg?v=2.1",
            "distance": "2.65",
            "unit": "km",
            "latitude": "39.3314275",
            "longitude": "16.1817108",
            "city": "Rende",
            "full_address": "Piazza degli Eroi, 7, Rende, (Cosenza)",
            "category": "Punto di Interesse",
            "category_image": "http://api.viaggiart.com/resources/web/2/category/badge/it/see.png?v=3",
            "category_pin": "http://api.viaggiart.com/resources/web/2/category/pin/it/see.png?v=3",
            "cover": {
              "url": "http://api.viaggiart.com/resources/images/2.625/icon/place/24371-d62e62abe24dcaa94f9e1b3678477b51-1480412797.jpg?v=2.1",
              "label": "",
              "licence": "ViaggiArt",
              "width": 400,
              "height": 400
            },
            "text": {
              "excerpt": "Il centro storico di Rende si sviluppa su un’altura. I natali della cittadina sono legati alla leggenda riportata da Dionisio di Alicarnasso secondo la quale Enotro, figlio del re di Arcadia, sbarcò nella località oggi chiamata...",
              "licence": ""
            },
            "call_to_action": []
          }
        ]
      }
    ]
  }
}
