{
  "data": [
    {
      "id": 1,
      "title": "Un'altra pinta",
      "type": "eat",
      "slug": "il-baretto",
      "rate": 7550,
      "share_link": "",
      "distance": "6.50",
      "unit": "km",
      "latitude": "39.300586",
      "longitude": "16.250882",
      "city": "Cosenza",
      "full_address": "Via Frugiuele Domenico, 40, Cosenza",
      "category": "Bar",
      "category_image": "http://api.viaggiart.com/resources/web/2/category/badge/it/eat.png?v=3",
      "category_pin": "http://api.viaggiart.com/resources/web/2/category/pin/it/eat.png?v=3",
      "cover": {
        "url": "http://api.viaggiart.com/resources/images/2.625/list/eat/134729-7700ed7bfff14d8cb4c58b21544b0c6c-1480805245.jpg?v=2.1",
        "label": "",
        "licence": "",
        "width": 800,
        "height": 600
      },
      "text": {
        "excerpt": "Il baretto è il posto dove puoi fare ciò che vuoi! Non è solo un bar, ma è molto di più: ogni volta che avrai voglia di qualcosa di buono, in qualsiasi momento della giornata, lo troverai nel nostro piccolo e delizioso locale in...",
        "licence": ""
      },
      "budget": -1,
      "stars": "0",
      "priceRange": "0.00",
      "call_to_action": {
        "type": "call",
        "label": "Prenota ora",
        "value": "791"
      }
    },
    {
      "id": 1,
      "title": "L’osteria degli amici",
      "type": "eat",
      "slug": "l-osteria-degli-amici",
      "rate": 1806,
      "share_link": "",
      "distance": "7.21",
      "unit": "km",
      "latitude": "39.2949677",
      "longitude": "16.2548544",
      "city": "Cosenza",
      "full_address": "Via Trento, 49, Cosenza",
      "category": "Ristorante",
      "category_image": "http://api.viaggiart.com/resources/web/2/category/badge/it/eat.png?v=3",
      "category_pin": "http://api.viaggiart.com/resources/web/2/category/pin/it/eat.png?v=3",
      "cover": {
        "url": "http://api.viaggiart.com/resources/images/2.625/list/eat/134700-858dc0a31f7379f4873679bdfd00abb8-1480805250.jpg?v=2.1",
        "label": "",
        "licence": "",
        "width": 800,
        "height": 600
      },
      "text": {
        "excerpt": "Ristorante situato nel centro città, è sinonimo di garanzia di un servizio cordiale, gentile e veloce. Si può variare dagli antipasti tipici calabresi a degli ottimi piatti caldi, con una buona selezione di vini. Le specialità della...",
        "licence": ""
      },
      "budget": -1,
      "stars": "0",
      "priceRange": "0.00",
      "call_to_action": {
        "type": "call",
        "label": "Prenota ora",
        "value": "558"
      }
    },
    {
      "id": 1,
      "title": "La Locanda del Re di Franco Nudi",
      "type": "eat",
      "slug": "la-locanda-del-re-di-franco-nudi",
      "rate": 7947,
      "share_link": "",
      "distance": "7.84",
      "unit": "km",
      "latitude": "39.276658350423",
      "longitude": "16.200016736984",
      "city": "Mendicino",
      "full_address": "Contrada Tivolille, 17, Mendicino, (Cosenza)",
      "category": "Ristorante",
      "category_image": "http://api.viaggiart.com/resources/web/2/category/badge/it/eat.png?v=3",
      "category_pin": "http://api.viaggiart.com/resources/web/2/category/pin/it/eat.png?v=3",
      "cover": {
        "url": "http://api.viaggiart.com/resources/images/2.625/list/eat/134750-aaacc0940f1fa6bebb87007be5ef4431-1480926735.jpg?v=2.1",
        "label": "",
        "licence": "",
        "width": 800,
        "height": 600
      },
      "text": {
        "excerpt": "Ristorante piccolo ed accogliente ideale per chi è alla ricerca di sapori di una volta. Succulenti primi piatti di vera pasta fresca fatta a mano e salumi di maiale nero di calabria. Cucina stagionale calabrese dove ai prodotti tipici si...",
        "licence": ""
      },
      "budget": -1,
      "stars": "0",
      "priceRange": "0.00",
      "call_to_action": {
        "type": "call",
        "label": "Prenota ora",
        "value": "+39.3389953945"
      }
    },
    {
      "id": 1,
      "title": "Salvino Ristoratori dal 1967",
      "type": "eat",
      "slug": "salvino-ristoratori-dal-1967",
      "rate": 1814,
      "share_link": "http://api.viaggiart.com/resources/images/2.625/big/eat/134702-185cfe9e765ee692c57f7fcdd3f860c1-1480805251.jpg?v=2.1",
      "distance": "7.96",
      "unit": "km",
      "latitude": "39.2899038481",
      "longitude": "16.260817050934",
      "city": "Cosenza",
      "full_address": "Via Giuseppe Marini Serra, 12, Cosenza",
      "category": "Ristorante",
      "category_image": "http://api.viaggiart.com/resources/web/2/category/badge/it/eat.png?v=3",
      "category_pin": "http://api.viaggiart.com/resources/web/2/category/pin/it/eat.png?v=3",
      "cover": {
        "url": "http://api.viaggiart.com/resources/images/2.625/list/eat/134702-185cfe9e765ee692c57f7fcdd3f860c1-1480805251.jpg?v=2.1",
        "label": "",
        "licence": "",
        "width": 800,
        "height": 600
      },
      "text": {
        "excerpt": "Il ristorante si trova nel centro storico della città di Cosenza, a 600 m dal Corso Telesio.\r\nLa tradizione della cucina tipica calabrese esprime i suoi antichi sapori e profumi fra queste antiche mura. Tanto passato ma anche uno sguardo a...",
        "licence": ""
      },
      "budget": -1,
      "stars": "0",
      "priceRange": "0.00",
      "call_to_action": {
        "type": "call",
        "label": "Prenota ora",
        "value": "+39.21257 "
      }
    },
    {
      "id": 1,
      "title": "Gran Caffè Renzelli",
      "type": "eat",
      "slug": "gran-caffe-renzelli",
      "rate": 1328,
      "share_link": "",
      "distance": "8.09",
      "unit": "km",
      "latitude": "39.288426",
      "longitude": "16.26069",
      "city": "Cosenza",
      "full_address": "Corso Bernardino Telesio, 26, Cosenza, 46, Cosenza",
      "category": "Bar",
      "category_image": "http://api.viaggiart.com/resources/web/2/category/badge/it/eat.png?v=3",
      "category_pin": "http://api.viaggiart.com/resources/web/2/category/pin/it/eat.png?v=3",
      "cover": {
        "url": "http://api.viaggiart.com/resources/images/2.625/list/eat/134485-277087f01c6e831a55e0fde3531ba3f4-1480805250.jpg?v=2.1",
        "label": "",
        "licence": "",
        "width": 800,
        "height": 600
      },
      "text": {
        "excerpt": "Nato nel 1805, è uno dei locali storici italiani, prestigioso interprete di quella tradizione che ci rende unici nel mondo. ViaggiArt lo consiglia ai turisti in visita per la prima volta in città, e a chi vuole scoprire le storie che si...",
        "licence": ""
      },
      "budget": -1,
      "stars": "0",
      "priceRange": "0.00",
      "call_to_action": {
        "type": "call",
        "label": "Prenota ora",
        "value": "0984 26814"
      }
    }
  ],
  "meta": {
    "pagination": {
      "total": 5,
      "count": 5,
      "per_page": 5,
      "current_page": 1,
      "total_pages": 1,
      "links": {
        "next": ""
      }
    }
  }
}