{
  "data": [
    {
      "id": 1,
      "title": "Spaghetti di Rocca imperiale",
      "type": "others1",
      "share_link": "http://preview.viaggiart.com/it//borgo-dei-borghi-2017-venzone-stella-alpina-291.html",
      "original_link": "http://www.viaggiart.com/blog/borgo-dei-borghi-2017-venzone-stella-alpina",
      "published": "",
      "elapsed_time": "",
      "latitude": 0,
      "longitude": 0,
      "full_address": "",
      "category": "Primo piatto",
      "category_image": "http://api.viaggiart.com/resources/web/2/category/badge/it/tips.png",
      "category_pin": "http://api.viaggiart.com/resources/web/2/category/pin/it/tips.png",
      "cover": {
        "url": "http://api.viaggiart.com/resources/images/1/banner/tips/4965-b7f7ada7d848002260ee5eb7d8835709-1492513576.jpg?v=2.1",
        "label": "",
        "licence": "",
        "width": 300,
        "height": 200
      },
      "text": {
        "excerpt": "Monumento Nazionale dal 1956, Venzone si conferma Borgo dei borghi 2017, portando il Friuli Venezia Giulia sul podio de Il Kilimangiaro, programma di Rai 3 che ogni anno premia il borgo più bello d’Italia. Venzone, una “stella...",
        "licence": "Eliana Iorfida"
      },
      "website": null,
      "call_to_action": []
    },
    {
      "id": 1,
      "title": "Centrale di baccalà",
      "type": "others1",
      "share_link": "http://preview.viaggiart.com/it//settimana-santa-italia-viaggio-pulp-riti-pasqua-290.html",
      "original_link": "http://www.viaggiart.com/blog/settimana-santa-italia-viaggio-pulp-riti-pasqua",
      "published": "",
      "elapsed_time": "",
      "latitude": 0,
      "longitude": 0,
      "full_address": "Procida, NA, Italia",
      "category": "Secondo di pesce",
      "category_image": "http://api.viaggiart.com/resources/web/2/category/badge/it/tips.png",
      "category_pin": "http://api.viaggiart.com/resources/web/2/category/pin/it/tips.png",
      "cover": {
        "url": "http://api.viaggiart.com/resources/images/1/banner/tips/4952-b7f7ada7d848002260ee5eb7d8835709-1492075560.jpg?v=2.1",
        "label": "",
        "licence": "",
        "width": 300,
        "height": 200
      },
      "text": {
        "excerpt": "Altro che “Semana Santa”! La nostra Settimana Santa in Italia non ha nulla da invidiare, in termini di fede e folklore, alla tradizione spagnola e il viaggio “pulp” tra i riti di Pasqua che vi proponiamo oggi lo...",
        "licence": "Eliana Iorfida"
      },
      "website": null,
      "call_to_action": []
    },
    {
      "id": 1,
      "title": "Rigatoni di Scoglio",
      "type": "others1",
      "share_link": "http://preview.viaggiart.com/it//napoli-storia-pastiera-289.html",
      "original_link": "http://www.viaggiart.com/blog/napoli-storia-pastiera",
      "published": "",
      "elapsed_time": "",
      "latitude": 40.8517746,
      "longitude": 14.2681244,
      "full_address": "",
      "category": "Primo piatto",
      "category_image": "http://api.viaggiart.com/resources/web/2/category/badge/it/tips.png",
      "category_pin": "http://api.viaggiart.com/resources/web/2/category/pin/it/tips.png",
      "cover": {
        "url": "http://api.viaggiart.com/resources/images/1/banner/tips/4939-b7f7ada7d848002260ee5eb7d8835709-1491904909.jpg?v=2.1",
        "label": "",
        "licence": "",
        "width": 300,
        "height": 200
      },
      "text": {
        "excerpt": "Regina dei dolci tipici di Pasqua, la pastiera napoletana ha un’origine leggendaria!\nViaggiArt ha deciso di svelarvi i segreti di Napoli e la vera storia della pastiera…\n \nOrigini, ricetta e varianti di un “must”\nOggi siamo a...",
        "licence": "Redazione"
      },
      "website": null,
      "call_to_action": []
    }
  ],
  "meta": {
    "pagination": {
      "total": 3,
      "count": 3,
      "per_page": 3,
      "current_page": 1,
      "total_pages": 1,
      "links": {
        "next": ""
      }
    }
  }
}
