{
  "data": [
    {
      "id": 1,
      "title": "Un'altra Pinta",
      "type": "eat",
      "slug": "complesso-termale-di-eta-romana-di-montegrotto-terme",
      "rate": 36,
      "share_link": "",
      "distance": "3.31",
      "unit": "km",
      "latitude": "45.3313",
      "longitude": "11.79334",
      "city": "Montegrotto Terme",
      "full_address": "Viale Stazione/via degli Scavi, Montegrotto Terme, (Padova)",
      "category": "Area Archeologica",
      "category_image": "http://api.viaggiart.com/resources/web/2/category/badge/it/see.png?v=3",
      "category_pin": "http://api.viaggiart.com/resources/web/2/category/pin/it/see.png?v=3",
      "cover": {
        "url": "http://api.viaggiart.com/resources/images/2.625/list/place/0-bfe339de49213d858153480e29722a05-345022200.jpg?v=2.1",
        "label": "Immagine non disponibile",
        "licence": "Copyright Altrama Italia SRL",
        "width": 800,
        "height": 600
      },
      "text": {
        "excerpt": "Si conservano i resti munumentali di un garnde complesso termale di età romana, comprendenti vasche, un ninfeo ed un piccolo teatro.",
        "licence": ""
      },
      "call_to_action": {
        "type": "call",
        "label": "Prenota",
        "value": "0498243811  - 049 8243811"
      }
    }
  ],
  "meta": {
    "title": "Ristorante",
    "pagination": {
      "total": 1,
      "count": 1,
      "per_page": 1,
      "current_page": 1,
      "total_pages": 1,
      "links": []
    }
  }
}