{
  "data": [
    {
      "id": 1,
      "title": "Centrale di baccalà",
      "type": "other1",
      "slug": "complesso-termale-di-eta-romana-di-montegrotto-terme",
      "rate": 36,
      "share_link": "",
      "distance": "3.31",
      "unit": "km",
      "latitude": "45.3313",
      "longitude": "11.79334",
      "city": "Montegrotto Terme",
      "full_address": "Viale Stazione/via degli Scavi, Montegrotto Terme, (Padova)",
      "category": "Area Archeologica",
      "category_image": "http://api.viaggiart.com/resources/web/2/category/badge/it/see.png?v=3",
      "category_pin": "http://api.viaggiart.com/resources/web/2/category/pin/it/see.png?v=3",
      "cover": {
        "url": "http://api.viaggiart.com/resources/images/2.625/list/place/0-bfe339de49213d858153480e29722a05-345022200.jpg?v=2.1",
        "label": "Immagine non disponibile",
        "licence": "Copyright Altrama Italia SRL",
        "width": 800,
        "height": 600
      },
      "text": {
        "excerpt": "Si conservano i resti munumentali di un garnde complesso termale di età romana, comprendenti vasche, un ninfeo ed un piccolo teatro.",
        "licence": ""
      },
      "call_to_action": {
        "type": "call",
        "label": "Contatta",
        "value": "0498243811  - 049 8243811"
      }
    },
    {
      "id": 1,
      "title": "Centrale di baccalà",
      "type": "other1",
      "slug": "museo-civico-di-abano-terme",
      "rate": 31.69014084507,
      "share_link": "",
      "distance": "1.37",
      "unit": "km",
      "latitude": "45.351994",
      "longitude": "11.779492",
      "city": "Abano Terme",
      "full_address": "VIA PIETRO D'ABANO,  20, Abano Terme, (Padova)",
      "category": "Museo",
      "category_image": "http://api.viaggiart.com/resources/web/2/category/badge/it/see.png?v=3",
      "category_pin": "http://api.viaggiart.com/resources/web/2/category/pin/it/see.png?v=3",
      "cover": {
        "url": "http://api.viaggiart.com/resources/images/2.625/list/place/11197-ec47951a847319d0dd4933431b5b2c0f-1481313557.jpg?v=2.1",
        "label": "Abano_Terme",
        "licence": "",
        "width": 800,
        "height": 600
      },
      "text": {
        "excerpt": "La sede del Museo Civico, in via di allestimento, è presso la Villa Comunale Roberto Bassi Rathgeb. Si tratta di una villa, il cui nucleo originale risale al XVI secolo con importanti rimaneggiamenti del Settecento, che ha delle sale con...",
        "licence": ""
      },
      "call_to_action": {
        "type": "call",
        "label": "Contatta",
        "value": "049667129"
      }
    },
    {
      "id": 1,
      "title": " Centrale di baccalà",
      "type": "other1",
      "slug": "acquedotto-romano",
      "rate": 11.408450704225,
      "share_link": "",
      "distance": "166.00",
      "unit": "m",
      "latitude": "45.360542",
      "longitude": "11.789381",
      "city": "Abano Terme",
      "full_address": "Via dell’Acquedotto Romano, Abano Terme, (Padova)",
      "category": "Edificio storico",
      "category_image": "http://api.viaggiart.com/resources/web/2/category/badge/it/see.png?v=3",
      "category_pin": "http://api.viaggiart.com/resources/web/2/category/pin/it/see.png?v=3",
      "cover": {
        "url": "http://api.viaggiart.com/resources/images/2.625/list/place/0-bfe339de49213d858153480e29722a05-345022200.jpg?v=2.1",
        "label": "Immagine non disponibile",
        "licence": "Copyright Altrama Italia SRL",
        "width": 800,
        "height": 600
      },
      "text": {
        "excerpt": "Si tratta dei resti dell'acquedotto romano che dalla zona delle risorgive della pianura settentrionale portava l'acqua alla città di Vicetia. La struttura era costituita da arcate e pilastri che sorreggevano lo specus. I resti conservati...",
        "licence": ""
      },
      "call_to_action": {
        "type": "call",
        "label": "Contatta",
        "value": "0498243811  - 0498243811"
      }
    },
    {
      "id": 1,
      "title": "Museo internazionale del vetro d’arte e delle terme",
      "type": "other1",
      "slug": "museo-internazionale-del-vetro-d-arte-e-delle-terme",
      "rate": 2.6470588235294,
      "share_link": "",
      "distance": "4.05",
      "unit": "km",
      "latitude": "45.32673",
      "longitude": "11.773799",
      "city": "Montegrotto Terme",
      "full_address": "VIA FERMI,  1, Montegrotto Terme, (Padova)",
      "category": "Museo",
      "category_image": "http://api.viaggiart.com/resources/web/2/category/badge/it/see.png?v=3",
      "category_pin": "http://api.viaggiart.com/resources/web/2/category/pin/it/see.png?v=3",
      "cover": {
        "url": "http://api.viaggiart.com/resources/images/2.625/list/place/11211-68dfff284e90ee47fcc6b4941047edad-1481313508.jpg?v=2.1",
        "label": "Montegrotto",
        "licence": "",
        "width": 800,
        "height": 600
      },
      "text": {
        "excerpt": "Il museo del Vetro ospita attualmente circa 500 opere, che comprendono realizzazioni dei Maestri Del Negro e Guarnieri, Giuman,  Seguso, Scarpa, Toso, Bianconi. L'esposizione comprende sculture in vetro, oggetti di particolare interesse...",
        "licence": ""
      },
      "call_to_action": {
        "type": "call",
        "label": "Contatta",
        "value": "0498910635"
      }
    },
    {
      "id": 1,
      "title": "Museo veneto del giocattolo - onlus",
      "type": "other1",
      "slug": "museo-veneto-del-giocattolo-onlus",
      "rate": 0.51136363636364,
      "share_link": "http://api.viaggiart.com/resources/images/2.625/big/place/11217-445b6949ed8860ca6175e8c89464ba85-1481153459.jpg?v=2.1",
      "distance": "3.25",
      "unit": "km",
      "latitude": "45.3702",
      "longitude": "11.830826",
      "city": "Padova",
      "full_address": "VIA TOBLINO,  51, Padova",
      "category": "Museo",
      "category_image": "http://api.viaggiart.com/resources/web/2/category/badge/it/see.png?v=3",
      "category_pin": "http://api.viaggiart.com/resources/web/2/category/pin/it/see.png?v=3",
      "cover": {
        "url": "http://api.viaggiart.com/resources/images/2.625/list/place/11217-445b6949ed8860ca6175e8c89464ba85-1481153459.jpg?v=2.1",
        "label": "Museo_giocattolo",
        "licence": "",
        "width": 800,
        "height": 600
      },
      "text": {
        "excerpt": "Il Museo Veneto del Giocattolo è nato nel 2006 con l’obiettivo di conservare e valorizzare i giocattoli presenti, che sono la Collezione più ampia di giocattoli presente nel Veneto, con inestimabili pezzi unici che tracciano la storia...",
        "licence": ""
      },
      "call_to_action": {
        "type": "call",
        "label": "Contatta",
        "value": "0498281111"
      }
    }
  ],
  "meta": {
    "title": "Piatti",
    "pagination": {
      "total": 5,
      "count": 5,
      "per_page": 10,
      "current_page": 1,
      "total_pages": 1,
      "links": []
    }
  }
}